\relax 
\@writefile{toc}{\contentsline {section}{\numberline {1}Abstract}{1}\protected@file@percent }
\@writefile{toc}{\contentsline {section}{\numberline {2}Introduction}{1}\protected@file@percent }
\@writefile{toc}{\contentsline {section}{\numberline {3}Method}{2}\protected@file@percent }
\@writefile{toc}{\contentsline {subsection}{\numberline {3.1}FDA}{2}\protected@file@percent }
\@writefile{lof}{\contentsline {figure}{\numberline {1}{\ignorespaces Fourier Transform}}{2}\protected@file@percent }
\newlabel{Figure 1: Fourier Transform}{{1}{2}}
\@writefile{lof}{\contentsline {figure}{\numberline {2}{\ignorespaces The mask}}{3}\protected@file@percent }
\newlabel{Figure 2: The mask}{{2}{3}}
\@writefile{lof}{\contentsline {figure}{\numberline {3}{\ignorespaces Formula to calculate FDA}}{3}\protected@file@percent }
\newlabel{Figure 3: Formula to calculate single band FDA}{{3}{3}}
\@writefile{lof}{\contentsline {figure}{\numberline {4}{\ignorespaces Effect of transformation size}}{3}\protected@file@percent }
\newlabel{Figure 4: Effect of transformation size}{{4}{3}}
\@writefile{toc}{\contentsline {subsection}{\numberline {3.2}Model}{4}\protected@file@percent }
\@writefile{toc}{\contentsline {section}{\numberline {4}Data}{4}\protected@file@percent }
\@writefile{toc}{\contentsline {section}{\numberline {5}Experiments and Analysis}{5}\protected@file@percent }
\@writefile{toc}{\contentsline {section}{\numberline {6}Discussion}{5}\protected@file@percent }
\@writefile{lof}{\contentsline {figure}{\numberline {5}{\ignorespaces Result of FFT}}{6}\protected@file@percent }
\newlabel{Figure 5: FFT result}{{5}{6}}
\@writefile{lof}{\contentsline {figure}{\numberline {6}{\ignorespaces The label of target image}}{7}\protected@file@percent }
\newlabel{Figure 6: The label of the target image}{{6}{7}}
\@writefile{lof}{\contentsline {figure}{\numberline {7}{\ignorespaces The loss function of single band FDA}}{7}\protected@file@percent }
\newlabel{Figure 7: Loss function of single band FDA}{{7}{7}}
\@writefile{lof}{\contentsline {figure}{\numberline {8}{\ignorespaces The loss value of multi-band FDA}}{7}\protected@file@percent }
\newlabel{Figure 8: The loss value of multi-band FDA}{{8}{7}}
\@writefile{lof}{\contentsline {figure}{\numberline {9}{\ignorespaces The loss function for self-supervised learning}}{7}\protected@file@percent }
\newlabel{Figure 9: The loss function for self-supervised learning}{{9}{7}}
\@writefile{lof}{\contentsline {figure}{\numberline {10}{\ignorespaces Fully convolutional networks architecture.}}{8}\protected@file@percent }
\newlabel{Figure 10: FCN 8s architecture}{{10}{8}}
\@writefile{lof}{\contentsline {figure}{\numberline {11}{\ignorespaces GTA5 Image}}{9}\protected@file@percent }
\newlabel{Figure 11: GTA5 Image}{{11}{9}}
\@writefile{lof}{\contentsline {figure}{\numberline {12}{\ignorespaces GTA5 Labels}}{9}\protected@file@percent }
\newlabel{Figure 12: GTA5 Labels}{{12}{9}}
\@writefile{lof}{\contentsline {figure}{\numberline {13}{\ignorespaces CityScapes Image}}{10}\protected@file@percent }
\newlabel{Figure 13: CityScapes Image}{{13}{10}}
\@writefile{lof}{\contentsline {figure}{\numberline {14}{\ignorespaces CityScapes Labels}}{10}\protected@file@percent }
\newlabel{Figure 14: CityScapes Labels}{{14}{10}}
\@writefile{lof}{\contentsline {figure}{\numberline {15}{\ignorespaces The results on GTA5 to CityScapes}}{11}\protected@file@percent }
\newlabel{Figure 15: The results on GTA5 to CityScapes}{{15}{11}}
\@writefile{lof}{\contentsline {figure}{\numberline {16}{\ignorespaces The results on CityScapes}}{11}\protected@file@percent }
\newlabel{Figure 16: The results on CityScapes}{{16}{11}}
\@writefile{lof}{\contentsline {figure}{\numberline {17}{\ignorespaces The results on CityScapes}}{11}\protected@file@percent }
\newlabel{Figure 17: The results on CityScapes}{{17}{11}}
\@writefile{lof}{\contentsline {figure}{\numberline {18}{\ignorespaces The results on CityScapes}}{11}\protected@file@percent }
\newlabel{Figure 18: The results on CityScapes}{{18}{11}}
\@writefile{lof}{\contentsline {figure}{\numberline {19}{\ignorespaces The results on CityScapes}}{12}\protected@file@percent }
\newlabel{Figure 19: The results on CityScapes}{{19}{12}}
