\relax 
\@writefile{toc}{\contentsline {section}{\numberline {1}Introduction}{1}\protected@file@percent }
\@writefile{toc}{\contentsline {section}{\numberline {2}Problem Statement}{1}\protected@file@percent }
\@writefile{toc}{\contentsline {section}{\numberline {3}Approach}{2}\protected@file@percent }
\@writefile{toc}{\contentsline {section}{\numberline {4}Data}{2}\protected@file@percent }
