\relax 
\@writefile{toc}{\contentsline {section}{\numberline {1}Review Questions}{1}\protected@file@percent }
\@writefile{toc}{\contentsline {subsection}{\numberline {1.1}Neural Networks}{1}\protected@file@percent }
\@writefile{toc}{\contentsline {subsection}{\numberline {1.2}Convolutional Neural Networks}{2}\protected@file@percent }
\@writefile{toc}{\contentsline {section}{\numberline {2}Programming Questions}{3}\protected@file@percent }
\@writefile{toc}{\contentsline {subsection}{\numberline {2.1}Construct and Train CNN}{3}\protected@file@percent }
\@writefile{lof}{\contentsline {figure}{\numberline {1}{\ignorespaces Load Data}}{3}\protected@file@percent }
\newlabel{Figure 1: Load data}{{1}{3}}
\@writefile{lof}{\contentsline {figure}{\numberline {2}{\ignorespaces Convert Data}}{4}\protected@file@percent }
\newlabel{Figure 2: Convert data}{{2}{4}}
\@writefile{lof}{\contentsline {figure}{\numberline {3}{\ignorespaces Model}}{4}\protected@file@percent }
\newlabel{Figure 3: Model}{{3}{4}}
\@writefile{toc}{\contentsline {subsection}{\numberline {2.2}Hypter-parameter Tuning}{4}\protected@file@percent }
\@writefile{lof}{\contentsline {figure}{\numberline {4}{\ignorespaces Model Parameters}}{5}\protected@file@percent }
\newlabel{Figure 4: Model parameters}{{4}{5}}
\@writefile{lof}{\contentsline {figure}{\numberline {5}{\ignorespaces Loss and accuracy}}{5}\protected@file@percent }
\newlabel{Figure 5: Loss and accuracy}{{5}{5}}
\@writefile{lof}{\contentsline {figure}{\numberline {6}{\ignorespaces Additional convolution layers}}{6}\protected@file@percent }
\newlabel{Figure 6:Additional conv layer with pooling}{{6}{6}}
\@writefile{lof}{\contentsline {figure}{\numberline {7}{\ignorespaces Model with 1 conv layer}}{7}\protected@file@percent }
\newlabel{Figure 7:1 conv layer with pooling}{{7}{7}}
\@writefile{lof}{\contentsline {figure}{\numberline {8}{\ignorespaces Model with no dropout layer}}{7}\protected@file@percent }
\newlabel{Figure 8: Model with no dropout layer}{{8}{7}}
\@writefile{lof}{\contentsline {figure}{\numberline {9}{\ignorespaces Model with no dropout layer}}{8}\protected@file@percent }
\newlabel{Figure 8: Model with no dropout layer}{{9}{8}}
\@writefile{lof}{\contentsline {figure}{\numberline {10}{\ignorespaces Set optimizer to be Adam}}{8}\protected@file@percent }
\newlabel{Figure 9: Adam optimizer}{{10}{8}}
\@writefile{lof}{\contentsline {figure}{\numberline {11}{\ignorespaces Loss and Accuracy of Adam}}{9}\protected@file@percent }
\newlabel{Figure 10: Loss and Accuracy of Adam}{{11}{9}}
\@writefile{lof}{\contentsline {figure}{\numberline {12}{\ignorespaces Adam learning rate = 0.01}}{9}\protected@file@percent }
\newlabel{Figure 11: Change adam learning rate}{{12}{9}}
\@writefile{lof}{\contentsline {figure}{\numberline {13}{\ignorespaces Adding Batch normalization}}{10}\protected@file@percent }
\newlabel{Figure 12: Add batch normalization}{{13}{10}}
\@writefile{lof}{\contentsline {figure}{\numberline {14}{\ignorespaces Adding Layer normalization}}{11}\protected@file@percent }
\newlabel{Figure 13: Add layer normalization}{{14}{11}}
\@writefile{toc}{\contentsline {subsection}{\numberline {2.3}Inference}{11}\protected@file@percent }
\@writefile{lof}{\contentsline {figure}{\numberline {15}{\ignorespaces Adding Xavier Initializer}}{12}\protected@file@percent }
\newlabel{Figure 14: Add Xavier Initializer}{{15}{12}}
\@writefile{lof}{\contentsline {figure}{\numberline {16}{\ignorespaces Adding He initializer}}{13}\protected@file@percent }
\newlabel{Figure 15: Add He initializer}{{16}{13}}
\@writefile{lof}{\contentsline {figure}{\numberline {17}{\ignorespaces The best model}}{14}\protected@file@percent }
\newlabel{Figure 16: The best model}{{17}{14}}
\@writefile{lof}{\contentsline {figure}{\numberline {18}{\ignorespaces The image with digit 0}}{15}\protected@file@percent }
\newlabel{Figure 17: The image with digit 0}{{18}{15}}
\@writefile{lof}{\contentsline {figure}{\numberline {19}{\ignorespaces The Prediction of image 0}}{15}\protected@file@percent }
\newlabel{Figure 18: The prediction of iamge 0}{{19}{15}}
\@writefile{lof}{\contentsline {figure}{\numberline {20}{\ignorespaces The image with digit 1}}{15}\protected@file@percent }
\newlabel{Figure 19: The image with digit 1}{{20}{15}}
\@writefile{lof}{\contentsline {figure}{\numberline {21}{\ignorespaces The Prediction of image 1}}{16}\protected@file@percent }
\newlabel{Figure 20: The prediction of iamge 1}{{21}{16}}
