\relax 
\@writefile{toc}{\contentsline {section}{\numberline {1}Corner detection}{1}\protected@file@percent }
\@writefile{toc}{\contentsline {section}{\numberline {2}Line detection}{2}\protected@file@percent }
\@writefile{lof}{\contentsline {figure}{\numberline {1}{\ignorespaces Line}}{3}\protected@file@percent }
\newlabel{Figure 1}{{1}{3}}
\@writefile{lof}{\contentsline {figure}{\numberline {2}{\ignorespaces (6, -8.2) on the line}}{4}\protected@file@percent }
\newlabel{Figure 2}{{2}{4}}
\@writefile{toc}{\contentsline {section}{\numberline {3}Model fitting 1}{5}\protected@file@percent }
\@writefile{toc}{\contentsline {section}{\numberline {4}Model fitting 2}{5}\protected@file@percent }
\@writefile{toc}{\contentsline {section}{\numberline {5}Rubust estimation}{6}\protected@file@percent }
\@writefile{toc}{\contentsline {section}{\numberline {6}Segmentation and recognition}{7}\protected@file@percent }
\@writefile{toc}{\contentsline {section}{\numberline {7}Programming questions (Line detection)}{8}\protected@file@percent }
\@writefile{toc}{\contentsline {subsection}{\numberline {7.1}Problem Statement}{8}\protected@file@percent }
\@writefile{toc}{\contentsline {subsection}{\numberline {7.2}Proposed Solution}{8}\protected@file@percent }
\@writefile{toc}{\contentsline {subsection}{\numberline {7.3}Implementation Details}{8}\protected@file@percent }
\@writefile{toc}{\contentsline {subsection}{\numberline {7.4}Results and Discussion}{9}\protected@file@percent }
\@writefile{lof}{\contentsline {figure}{\numberline {3}{\ignorespaces Straight line test}}{10}\protected@file@percent }
\newlabel{Figure 3}{{3}{10}}
\@writefile{lof}{\contentsline {figure}{\numberline {4}{\ignorespaces Binary edge detection of test 1}}{11}\protected@file@percent }
\newlabel{Figure 4}{{4}{11}}
\@writefile{lof}{\contentsline {figure}{\numberline {5}{\ignorespaces Hough transform bin = 8, edge = 0.3, peak = 1}}{12}\protected@file@percent }
\newlabel{Figure 5}{{5}{12}}
\@writefile{lof}{\contentsline {figure}{\numberline {6}{\ignorespaces LSE Refine, bin = 8, edge = 0.3, peak = 1}}{13}\protected@file@percent }
\newlabel{Figure 6}{{6}{13}}
\@writefile{lof}{\contentsline {figure}{\numberline {7}{\ignorespaces Parameter space}}{14}\protected@file@percent }
\newlabel{Figure 7}{{7}{14}}
\@writefile{lof}{\contentsline {figure}{\numberline {8}{\ignorespaces Test 1 overlay}}{15}\protected@file@percent }
\newlabel{Figure 8}{{8}{15}}
\@writefile{lof}{\contentsline {figure}{\numberline {9}{\ignorespaces Hough transform bin = 16}}{16}\protected@file@percent }
\newlabel{Figure 9}{{9}{16}}
\@writefile{lof}{\contentsline {figure}{\numberline {10}{\ignorespaces LSE Refine bin = 16}}{17}\protected@file@percent }
\newlabel{Figure 10}{{10}{17}}
\@writefile{lof}{\contentsline {figure}{\numberline {11}{\ignorespaces Overlay bin = 16}}{18}\protected@file@percent }
\newlabel{Figure 11}{{11}{18}}
\@writefile{lof}{\contentsline {figure}{\numberline {12}{\ignorespaces Hough bin = 64}}{19}\protected@file@percent }
\newlabel{Figure 12}{{12}{19}}
\@writefile{lof}{\contentsline {figure}{\numberline {13}{\ignorespaces LSE refine bin = 64}}{20}\protected@file@percent }
\newlabel{Figure 13}{{13}{20}}
\@writefile{lof}{\contentsline {figure}{\numberline {14}{\ignorespaces Overlay bin = 64}}{21}\protected@file@percent }
\newlabel{Figure 14}{{14}{21}}
\@writefile{lof}{\contentsline {figure}{\numberline {15}{\ignorespaces Test 2 Triangle}}{22}\protected@file@percent }
\newlabel{Figure 15}{{15}{22}}
\@writefile{lof}{\contentsline {figure}{\numberline {16}{\ignorespaces Test2 bin = 8}}{22}\protected@file@percent }
\newlabel{Figure 16}{{16}{22}}
\@writefile{lof}{\contentsline {figure}{\numberline {17}{\ignorespaces Parameter space bin = 8}}{23}\protected@file@percent }
\newlabel{Figure 17}{{17}{23}}
\@writefile{lof}{\contentsline {figure}{\numberline {18}{\ignorespaces Test 2 bin = 16}}{24}\protected@file@percent }
\newlabel{Figure 18}{{18}{24}}
\@writefile{lof}{\contentsline {figure}{\numberline {19}{\ignorespaces Test 2 bin = 64}}{24}\protected@file@percent }
\newlabel{Figure 19}{{19}{24}}
\@writefile{lof}{\contentsline {figure}{\numberline {20}{\ignorespaces Edge threashold = 0.5}}{24}\protected@file@percent }
\newlabel{Figure 20}{{20}{24}}
\@writefile{lof}{\contentsline {figure}{\numberline {21}{\ignorespaces Edge threashold = 0.8}}{25}\protected@file@percent }
\newlabel{Figure 21}{{21}{25}}
\@writefile{lof}{\contentsline {figure}{\numberline {22}{\ignorespaces Peak = 5}}{25}\protected@file@percent }
\newlabel{Figure 22}{{22}{25}}
\@writefile{lof}{\contentsline {figure}{\numberline {23}{\ignorespaces Test 3}}{25}\protected@file@percent }
\newlabel{Figure 23}{{23}{25}}
\@writefile{lof}{\contentsline {figure}{\numberline {24}{\ignorespaces Test 3 bin = 8}}{26}\protected@file@percent }
\newlabel{Figure 24}{{24}{26}}
\@writefile{lof}{\contentsline {figure}{\numberline {25}{\ignorespaces Test 3 bin = 16}}{27}\protected@file@percent }
\newlabel{Figure 25}{{25}{27}}
\@writefile{lof}{\contentsline {figure}{\numberline {26}{\ignorespaces Test 3 bin = 32}}{28}\protected@file@percent }
\newlabel{Figure 26}{{26}{28}}
\@writefile{lof}{\contentsline {figure}{\numberline {27}{\ignorespaces Test 3 edge = 0.5}}{29}\protected@file@percent }
\newlabel{Figure 27}{{27}{29}}
\@writefile{lof}{\contentsline {figure}{\numberline {28}{\ignorespaces Test 3 edge = 0.8}}{30}\protected@file@percent }
\newlabel{Figure 28}{{28}{30}}
\@writefile{lof}{\contentsline {figure}{\numberline {29}{\ignorespaces Test 3 parameter space}}{31}\protected@file@percent }
\newlabel{Figure 29}{{29}{31}}
