\relax 
\@writefile{toc}{\contentsline {section}{\numberline {1}}{1}\protected@file@percent }
\@writefile{toc}{\contentsline {section}{\numberline {2}}{2}\protected@file@percent }
\@writefile{toc}{\contentsline {section}{\numberline {3}}{2}\protected@file@percent }
\@writefile{toc}{\contentsline {section}{\numberline {4}}{3}\protected@file@percent }
\@writefile{toc}{\contentsline {section}{\numberline {5}Programming part}{3}\protected@file@percent }
\@writefile{toc}{\contentsline {subsection}{\numberline {5.1}}{3}\protected@file@percent }
\@writefile{toc}{\contentsline {subsection}{\numberline {5.2}}{3}\protected@file@percent }
\@writefile{lof}{\contentsline {figure}{\numberline {1}{\ignorespaces 3D non-coplaner calibration}}{4}\protected@file@percent }
\newlabel{Figure 1: Non coplaner Image}{{1}{4}}
\@writefile{toc}{\contentsline {subsection}{\numberline {5.3}}{4}\protected@file@percent }
\@writefile{lof}{\contentsline {figure}{\numberline {2}{\ignorespaces Select points in order}}{5}\protected@file@percent }
\newlabel{Figure 2: Select Points}{{2}{5}}
\@writefile{lof}{\contentsline {figure}{\numberline {3}{\ignorespaces The parameter of my camera}}{5}\protected@file@percent }
\newlabel{Figure 3: The parameter of my camera}{{3}{5}}
\@writefile{lof}{\contentsline {figure}{\numberline {4}{\ignorespaces The parameter of data from class website}}{6}\protected@file@percent }
\newlabel{Figure 4: The parameter of data from class website}{{4}{6}}
\@writefile{lof}{\contentsline {figure}{\numberline {5}{\ignorespaces The parameter of RANSAC algorithm}}{6}\protected@file@percent }
\newlabel{Figure 5: The parameter of RANSAC algorithm}{{5}{6}}
\@writefile{lof}{\contentsline {figure}{\numberline {6}{\ignorespaces The parameter of RANSAC from noise 1 vs noise 2}}{6}\protected@file@percent }
\newlabel{Figure 6: The parameter of RANSAC from noise 1 vs noise 2}{{6}{6}}
